Kootenay Lake Exploitation Study Data • klexdatr
…
klexdatr is an R package of six relational tibbles from the Kootenay Lake Large Trout Exploitation study.

ls("package:klexdatr") # the six tibbles
#> [1] "capture"    "deployment" "detection"  "recapture"  "section"   
#> [6] "station"

library(tibble) # for prettier printing
capture
#> # A tibble: 245 × 9
#>    Capture DateTimeCapture     SectionCapture Species    Length Weight Reward1
#>    <fct>   <dttm>              <fct>          <fct>       <int>  <dbl>   <int>
#>  1 F075    2008-05-24 10:40:00 S25            Bull Trout    545   1.75       0
#>  2 F076    2008-05-24 11:10:00 S25            Bull Trout    654   3.4        0
#>  3 F084    2008-06-05 08:01:00 S16            Bull Trout    553  NA          0
#>  4 F100    2009-05-02 13:31:00 S21            Bull Trout    643   2.75     100
#>  5 F104    2009-05-03 11:17:00 S22            Bull Trout    567   2        100
#>  6 F129    2009-05-07 09:11:00 S21            Bull Trout    703   3.9      100
#>  7 F133    2009-05-07 13:58:00 S21            Bull Trout    712   3.65     100
#>  8 F137    2009-05-08 11:16:00 S21            Bull Trout    572   1.9      100
#>  9 F141    2009-05-20 15:13:00 S16            Bull Trout    564   2.2      100
#> 10 F143    2009-05-21 08:00:00 S16            Bull Trout    595   2.4      100
#> # ℹ 235 more rows
#> # ℹ 2 more variables: Reward2 <int>, DateTimeTagExpire <dttm>

recapture
#> # A tibble: 54 × 8
#>    DateTimeRecapture   Capture SectionRecapture TBarTag1 TBarTag2 TagsRemoved
#>    <dttm>              <fct>   <fct>            <lgl>    <lgl>    <lgl>      
#>  1 2009-04-05 12:00:00 F006    S25              TRUE     TRUE     TRUE       
#>  2 2009-05-23 12:00:00 F131    S16              TRUE     TRUE     TRUE       
#>  3 2009-09-10 12:00:00 F097    S14              TRUE     TRUE     TRUE       
#>  4 2009-10-06 12:00:00 F169    S08              TRUE     TRUE     TRUE       
#>  5 2009-10-10 12:00:00 F076    S30              TRUE     TRUE     TRUE       
#>  6 2009-10-12 12:00:00 F099    S10              TRUE     TRUE     TRUE       
#>  7 2009-10-14 12:00:00 F112    S16              TRUE     TRUE     TRUE       
#>  8 2009-10-16 12:00:00 F111    S27              TRUE     TRUE     TRUE       
#>  9 2010-01-23 12:00:00 F197    S27              TRUE     TRUE     TRUE       
#> 10 2010-01-28 12:00:00 F075    S23              TRUE     TRUE     TRUE       
#> # ℹ 44 more rows
#> # ℹ 2 more variables: Released <lgl>, Public <lgl>
…
