Kootenay Lake Exploitation Study Data — klexdatr • klexdatr
…
#>  [1]  1  2  3  4  5  6  7  8  9 10 11 12 13 14 15 16 17 18 19 20 21 22 23 24 25
#> [26] 26 27 28 29 30 31 32 33
#> 
#> Slot "bbox":
#>         min     max
#> x  461430.9  528368
#> y 5447594.6 5610641
#> 
#> Slot "proj4string":
#> CRS arguments:
#>  +init=epsg:26911 +proj=utm +zone=11 +datum=NAD83 +units=m +no_defs
#> +ellps=GRS80 +towgs84=0,0,0 
#> 
print(klexdatr::station)
#> # A tibble: 28 x 4
#>                        Station Section EastingStation NorthingStation
#>                         <fctr>  <fctr>          <dbl>           <dbl>
#>  1         Lardeau R. at Mobbs     S02       480847.0         5595246
#>  2          Gerrard Scafolding     S02       480626.0         5595336
#>  3              Gerrard Bridge     S02       480380.0         5595360
#>  4               Lardeau Delta     S07       504927.0         5556704
#>  5                   Fry Creek     S09       507092.4         5545461
#>  6 Kaslo - Shutty Bench - West     S11       507853.0         5538758
#>  7 Kaslo - Shutty Bench - East     S11       507390.0         5538898
#>  8       South of Kaslo - East     S13       508997.0         5524158
#>  9       South of Kaslo - West     S13       508102.0         5524630
#> 10              Woodbury Point     S15       509139.0         5516639
#> # ... with 18 more rows
print(klexdatr::deployment)
#> # A tibble: 197 x 4
#>                                Station Receiver  DateTimeReceiverIn
#>                                 <fctr>   <fctr>              <dttm>
#>  1                  Gerrard Scafolding     2736 2008-04-06 11:00:00
#>  2                      Gerrard Bridge     6247 2008-04-06 11:00:00
#>  3                 Lardeau R. at Mobbs     8247 2008-04-06 11:00:00
#>  4                       Lardeau Delta     6092 2008-03-06 12:00:00
#>  5                       Lardeau Delta     5308 2008-09-16 11:00:00
#>  6         Kaslo - Shutty Bench - West     4348 2008-03-06 12:00:00
#>  7         Kaslo - Shutty Bench - East     5306 2008-03-06 12:00:00
#>  8                      Woodbury Point     8248 2008-05-08 11:00:00
#>  9   Coffee Creek - Power Lines - East     6093 2008-02-26 12:00:00
#> 10 Coffee Creek - Power Lines - Middle     5308 2008-02-26 12:00:00
#> # ... with 187 more rows, and 1 more variables: DateTimeReceiverOut <dttm>
print(klexdatr::capture)
#> # A tibble: 245 x 9
#>    Capture     DateTimeCapture SectionCapture    Species Length Weight Reward1
#>     <fctr>              <dttm>         <fctr>     <fctr>  <int>  <dbl>   <int>
#>  1    F075 2008-05-24 10:40:00            S25 Bull Trout    545   1.75       0
#>  2    F076 2008-05-24 11:10:00            S25 Bull Trout    654   3.40       0
#>  3    F084 2008-06-05 08:01:00            S16 Bull Trout    553     NA       0
#>  4    F100 2009-05-02 13:31:00            S21 Bull Trout    643   2.75     100
#>  5    F104 2009-05-03 11:17:00            S22 Bull Trout    567   2.00     100
#>  6    F129 2009-05-07 09:11:00            S21 Bull Trout    703   3.90     100
#>  7    F133 2009-05-07 13:58:00            S21 Bull Trout    712   3.65     100
#>  8    F137 2009-05-08 11:16:00            S21 Bull Trout    572   1.90     100
#>  9    F141 2009-05-20 15:13:00            S16 Bull Trout    564   2.20     100
#> 10    F143 2009-05-21 08:00:00            S16 Bull Trout    595   2.40     100
#> # ... with 235 more rows, and 2 more variables: Reward2 <int>,
#> #   DateTimeTagExpire <dttm>
print(klexdatr::recapture)
#> # A tibble: 54 x 8
#>      DateTimeRecapture Capture SectionRecapture TBarTag1 TBarTag2 TagsRemoved
#>                 <dttm>  <fctr>           <fctr>    <lgl>    <lgl>       <lgl>
#>  1 2009-04-05 12:00:00    F006              S25     TRUE     TRUE        TRUE
#>  2 2009-05-23 12:00:00    F131              S16     TRUE     TRUE        TRUE
#>  3 2009-09-10 12:00:00    F097              S14     TRUE     TRUE        TRUE
#>  4 2009-10-06 12:00:00    F169              S08     TRUE     TRUE        TRUE
#>  5 2009-10-10 12:00:00    F076              S30     TRUE     TRUE        TRUE
#>  6 2009-10-12 12:00:00    F099              S10     TRUE     TRUE        TRUE
#>  7 2009-10-14 12:00:00    F112              S16     TRUE     TRUE        TRUE
#>  8 2009-10-16 12:00:00    F111              S27     TRUE     TRUE        TRUE
#>  9 2010-01-23 12:00:00    F197              S27     TRUE     TRUE        TRUE
#> 10 2010-01-28 12:00:00    F075              S23     TRUE     TRUE        TRUE
#> # ... with 44 more rows, and 2 more variables: Released <lgl>, Public <lgl>
…
